<?xml version="1.0" encoding="utf-8"?>
<!-- Generator: Adobe Illustrator 13.0.1, SVG Export Plug-In . SVG Version: 6.00 Build 14948)  -->
<!DOCTYPE svg PUBLIC "-//W3C//DTD SVG 1.1//EN" "http://www.w3.org/Graphics/SVG/1.1/DTD/svg11.dtd">
<svg version="1.1" class="3d-spect-icon-svg" xmlns="http://www.w3.org/2000/svg" xmlns:xlink="http://www.w3.org/1999/xlink" x="0px" y="0px"
	 viewBox="26.966 234.315 541.522 373.251"
	 enable-background="new 26.966 234.315 541.522 373.251" xml:space="preserve">
	<path d="M375.321,556.192c0.995,5.774,6.046,9.967,11.905,9.881h127.984c6.575,0,11.905-5.33,11.905-11.905V431.481
		c0-6.575-5.33-11.905-11.905-11.905H365.737c-6.574-0.096-11.981,5.156-12.078,11.73c-0.011,0.737,0.047,1.473,0.173,2.199
		L375.321,556.192z M503.187,443.387v98.815H397.108l-17.203-98.815H503.187z"/>
	<path d="M229.538,419.576H80.184c-6.575,0-11.905,5.33-11.905,11.905v122.627c0,6.575,5.33,11.905,11.905,11.905h128.163
		c5.859,0.086,10.91-4.106,11.905-9.881l21.371-122.627c1.118-6.479-3.228-12.639-9.707-13.758c-0.726-0.125-1.462-0.183-2.199-0.172
		H229.538z M198.167,542.203H92.089v-98.815h123.281L198.167,542.203z"/>
	<path d="M568.31,388.086c0.021-0.416,0.021-0.834,0-1.25c0,0,0-0.417,0-0.596l-47.265-143.878
		c-2.261-6.174-9.099-9.348-15.272-7.087c-2.333,0.854-4.341,2.416-5.741,4.468l-22.085,33.99c-1.293,2.001-1.957,4.345-1.904,6.727
		l2.023,97.565H117.448l2.024-97.565c0.053-2.382-0.611-4.726-1.905-6.727l-22.323-33.99c-3.578-5.517-10.951-7.088-16.467-3.51
		c-2.29,1.485-4,3.712-4.844,6.308L27.383,386.3c0,0,0,0.417,0,0.596c-0.235,0.814-0.375,1.653-0.417,2.5c0,0,0,0.417,0,0.596
		v205.668c0,6.575,5.331,11.905,11.906,11.905h210.847c5.822,0.095,10.858-4.035,11.905-9.763l21.132-117.329h29.764l21.312,117.27
		c1.047,5.728,6.083,9.857,11.905,9.763h210.847c6.575,0,11.905-5.33,11.905-11.905V389.931c0,0,0-0.417,0-0.596
		C568.451,388.916,568.392,388.499,568.31,388.086z M499.675,283.675l6.31-10.001l34.05,104.411h-38.396L499.675,283.675z
		 M89.292,273.614l6.488,10.001l-1.964,94.41H55.123L89.292,273.614z M544.677,583.753H355.499l-21.371-117.447l0,0
		c-0.094-0.443-0.213-0.881-0.356-1.31c0-0.357,0-0.655-0.298-1.013c-0.298-0.356-0.298-0.595-0.477-0.893
		c-0.195-0.409-0.414-0.807-0.654-1.19l-0.298-0.417c-0.343-0.483-0.721-0.941-1.131-1.369l0,0c-0.479-0.479-0.996-0.918-1.548-1.31
		l0,0c-0.567-0.367-1.165-0.686-1.786-0.952h-0.417c-0.58-0.225-1.177-0.404-1.785-0.536h-0.596h-1.785h-50.182
		c-5.822-0.095-10.858,4.035-11.906,9.763l-21.132,116.674H50.599V401.837h494.078V583.753z"/>
</svg>
