<svg version="1.1" class="account-icon-svg" xmlns="http://www.w3.org/2000/svg" xmlns:xlink="http://www.w3.org/1999/xlink" x="0px" y="0px"
	 viewBox="0 0 402.406 402.407" enable-background="new 0 0 402.406 402.407"
	 xml:space="preserve">
	<path d="M201.204,0C90.482,0,0,89.887,0,201.203c0,110.722,89.888,201.204,201.204,201.204
		c110.725,0,201.202-89.889,201.202-201.204C402.408,90.481,311.925,0,201.204,0z M201.204,382.167
		c-45.836,0-87.506-17.262-119.056-45.239c55.956-17.856,75.005-39.886,81.554-54.17c10.119,4.762,22.024,7.146,34.525,7.146h0.596
		h0.595h0.595h0.596c13.689,0,26.189-2.979,36.904-8.334c5.953,13.688,24.406,36.905,82.746,55.358
		C288.71,365.499,247.042,382.167,201.204,382.167z M246.445,251.206c-11.313,13.099-26.786,19.049-46.432,19.646c0,0,0,0-0.595,0
		l0,0c0,0,0,0-0.596,0c-19.645,0-35.121-6.547-46.432-19.646c-28.572-32.146-22.025-92.268-22.025-92.862v-0.596
		c1.19-30.359,12.502-51.789,33.336-63.1c14.287-7.738,29.168-8.334,33.931-8.334c0.596,0,1.19,0,1.19,0h0.596
		c1.785,0,19.046-0.596,35.714,8.334c20.836,11.311,31.552,32.146,33.336,63.1v0.596
		C268.468,158.344,275.018,219.059,246.445,251.206z M254.779,270.848L254.779,270.848L254.779,270.848L254.779,270.848z
		 M336.332,321.45c-75.005-21.434-80.957-48.219-81.554-51.195c2.382-1.784,4.166-4.165,6.549-6.547
		c33.335-37.502,27.384-102.388,26.786-108.34c-3.568-73.22-57.146-91.077-88.695-89.888c-31.55-1.189-85.125,16.668-88.696,89.888
		c-0.595,5.952-6.548,70.243,26.788,108.34c2.978,2.978,5.953,5.953,8.929,8.334c-2.381,6.548-15.477,29.765-80.362,48.813
		c-28.572-32.146-45.836-74.408-45.836-120.245c0-100.008,80.958-180.965,180.964-180.965c100.007,0,180.964,80.957,180.964,180.965
		C382.167,247.636,364.904,289.304,336.332,321.45z"/>
</svg>