<?xml version="1.0" encoding="utf-8"?>
<!-- Generator: Adobe Illustrator 13.0.1, SVG Export Plug-In . SVG Version: 6.00 Build 14948)  -->
<!DOCTYPE svg PUBLIC "-//W3C//DTD SVG 1.1//EN" "http://www.w3.org/Graphics/SVG/1.1/DTD/svg11.dtd">
<svg version="1.1" id="billing-icon-svg" xmlns="http://www.w3.org/2000/svg" xmlns:xlink="http://www.w3.org/1999/xlink" x="0px" y="0px"
	 viewBox="91.58 146.202 412.116 549.485" enable-background="new 91.58 146.202 412.116 549.485" xml:space="preserve">
	<g>
		<g>
			<path d="M469.351,695.687H125.922c-18.938,0-34.343-15.404-34.343-34.343V180.546c0-18.938,15.405-34.344,34.343-34.344h276.341
				c3.041,0,5.947,1.208,8.094,3.354l89.982,89.982c2.146,2.146,3.354,5.053,3.354,8.094v413.712
				C503.693,680.283,488.288,695.687,469.351,695.687z M125.922,169.097c-6.316,0-11.448,5.132-11.448,11.448v480.799
				c0,6.316,5.131,11.448,11.448,11.448h343.428c6.316,0,11.447-5.132,11.447-11.448V252.372l-83.274-83.274H125.922z"/>
		</g>
		<g>
			<path d="M492.246,259.08h-89.982c-6.327,0-11.447-5.12-11.447-11.447V157.65c0-4.628,2.783-8.81,7.065-10.576
				c4.292-1.766,9.211-0.793,12.476,2.482l89.982,89.982c3.275,3.275,4.259,8.194,2.481,12.476
				C501.055,256.297,496.874,259.08,492.246,259.08z M413.711,236.184h50.899l-50.899-50.899V236.184z"/>
		</g>
		<g>
			<path d="M297.637,617.992c-64.907,0-117.707-52.812-117.707-117.719c0-64.906,52.8-117.707,117.707-117.707
				s117.718,52.801,117.718,117.707C415.354,565.18,362.544,617.992,297.637,617.992z M297.637,405.462
				c-52.274,0-94.812,42.537-94.812,94.812c0,52.286,42.538,94.823,94.812,94.823c52.285,0,94.822-42.537,94.822-94.823
				C392.459,447.999,349.922,405.462,297.637,405.462z"/>
		</g>
		<g>
			<g>
				<path d="M294.336,562.641v-10.983c-13.751-1.402-26.094-6.869-37.016-16.396l10.983-13.09
					c8.425,7.322,17.094,11.682,26.033,13.09V506.07c-11.339-2.706-19.641-6.269-24.906-10.684
					c-5.265-4.414-7.897-10.959-7.897-19.634c0-8.676,3.024-15.771,9.098-21.294c6.073-5.517,13.971-8.522,23.706-9.024v-7.524h9.624
					v7.671c11.033,0.809,21.466,4.567,31.298,11.29l-9.783,13.843c-6.625-4.714-13.788-7.622-21.515-8.73v28.285h0.453
					c11.535,2.713,20.008,6.374,25.421,10.983c5.424,4.617,8.13,11.314,8.13,20.088c0,8.779-3.11,15.931-9.33,21.44
					c-6.221,5.522-14.437,8.529-24.674,9.031v10.83H294.336z M283.72,465.522c-2.559,2.253-3.833,5.063-3.833,8.424
					s1.004,6.019,3.013,7.972c1.996,1.959,5.816,3.839,11.437,5.645V461.53C289.817,461.934,286.279,463.262,283.72,465.522z
					 M315.396,531.497c2.805-2.302,4.213-5.21,4.213-8.725c0-3.508-1.103-6.294-3.307-8.351c-2.216-2.058-6.33-3.986-12.343-5.792
					v27.079C308.772,535.213,312.581,533.805,315.396,531.497z"/>
			</g>
		</g>
		<g>
			<path d="M345.473,259.08H159.829c-6.327,0-11.447-5.12-11.447-11.447c0-6.328,5.12-11.448,11.447-11.448h185.644
				c6.327,0,11.447,5.12,11.447,11.448C356.92,253.96,351.8,259.08,345.473,259.08z"/>
		</g>
		<g>
			<path d="M437.054,327.765H159.829c-6.327,0-11.447-5.12-11.447-11.447c0-6.328,5.12-11.448,11.447-11.448h277.225
				c6.327,0,11.447,5.12,11.447,11.448C448.501,322.645,443.381,327.765,437.054,327.765z"/>
		</g>
	</g>
</svg>
