<svg version="1.2" baseProfile="tiny" xmlns="http://www.w3.org/2000/svg" xmlns:xlink="http://www.w3.org/1999/xlink"
	 x="0px" y="0px" width="52px" height="52px" viewBox="0 0 52 52" xml:space="preserve">
	<path d="M33.753,22.205l-9.774,9.746c-0.308,0-0.475,0-0.783,0l-5.947-5.977c0-0.307,0-0.475,0-0.781l2.346-2.346
		c0.307,0,0.475,0,0.781,0l3.212,3.211l7.01-7.01c0.308,0,0.475,0,0.782,0l2.346,2.346C33.753,21.701,33.753,21.896,33.753,22.205z"
		/>
</svg>