<!-- Generator: Adobe Illustrator 13.0.1, SVG Export Plug-In . SVG Version: 6.00 Build 14948)  -->
<!DOCTYPE svg PUBLIC "-//W3C//DTD SVG 1.1//EN" "http://www.w3.org/Graphics/SVG/1.1/DTD/svg11.dtd">
<svg version="1.1" id="green-brushstroke-svg" xmlns="http://www.w3.org/2000/svg" xmlns:xlink="http://www.w3.org/1999/xlink" x="0px" y="0px"
	 width="241.28px" height="22.507px" viewBox="0 0 241.28 22.507" enable-background="new 0 0 241.28 22.507" xml:space="preserve">
<linearGradient id="SVGID_1_" gradientUnits="userSpaceOnUse" x1="0" y1="11.2534" x2="241.2803" y2="11.2534">
	<stop  offset="0" style="stop-color:#49BE9F"/>
	<stop  offset="1" style="stop-color:#71C387"/>
</linearGradient>
<path fill="url(#SVGID_1_)" d="M240.813,22.466c0.335,0.174,0.383-0.259,0.467-0.306C240.652,22.008,240.785,22.571,240.813,22.466z
	 M234.719,21.188l0.156-0.131l-0.982,0.136L234.719,21.188z M232.192,20.546l0.114,0.206l0.596-0.418
	c-1.201-0.312-2.84-0.296-3.625-0.693C229.615,20.479,231.298,19.966,232.192,20.546z M227.357,17.673l-0.109-0.1
	c-0.121-0.022-0.286-0.074-0.563-0.145C226.809,17.745,225.993,17.512,227.357,17.673z M227.248,17.573
	C227.838,17.696,226.915,17.253,227.248,17.573L227.248,17.573z M224.808,16.649c-0.819-0.027-0.688,0.166-0.293,0.521l0.82-0.088
	C225.208,16.889,224.528,16.714,224.808,16.649z M223.684,17.534l0.418-0.023C224.046,17.43,223.945,17.385,223.684,17.534z
	 M224.505,17.511c-0.11,0.193,0.097,0.027,0.485-0.047l-0.889,0.047C224.19,17.646,224.156,17.876,224.505,17.511z M225.446,17.666
	c0.399,0.239,0.933,0.446,0.112,0.533C227.044,18.398,226.938,17.866,225.446,17.666z M228.822,20.289l0.514,0.342l0.548-0.113
	C229.611,20.573,228.841,20.063,228.822,20.289z M219.797,15.897c-0.075,0.142,0.186,0.444,0.209,0.646l0.596-0.072
	C220.33,16.317,219.796,16.126,219.797,15.897z M220.006,16.543l-0.892,0.107C219.863,16.813,220.023,16.716,220.006,16.543z
	 M223.394,18.284l1.496-0.258l-1.765,0.212L223.394,18.284z M216.165,15.428l0.401-0.114l0.536-0.267L216.165,15.428z
	 M214.429,15.018c0.4-0.229-0.401-0.567,0.001-0.682c-0.587-0.046-1.122,0.118-1.604,0.266
	C213.319,14.557,213.817,14.673,214.429,15.018z M212.025,14.8l0.801-0.198C212.563,14.625,212.301,14.681,212.025,14.8z
	 M217.095,15.778l0.261,0.48l0.332,0.064C217.638,16.221,217.553,15.962,217.095,15.778z M216.643,16.11
	c0.091,0.019,0.308,0.067,0.723,0.163l-0.01-0.015C216.996,16.186,216.748,16.132,216.643,16.11z M217.771,16.34l-0.084-0.017
	C217.712,16.371,217.729,16.388,217.771,16.34z M220.569,18.223c0.408-0.226-0.127-0.53,0.684-0.752
	C220.713,17.618,219.637,17.688,220.569,18.223z M219.107,16.814l-1.015,0.124l0.879,0.254
	C218.974,17.078,218.841,16.888,219.107,16.814z M217.631,16.995l0.462-0.057l-0.326-0.094L217.631,16.995z M213.486,15.45
	c-0.416,0.119-0.84,0.063-1.321,0.014c0.496,0.168,1.017,0.302,1.518,0.384C213.776,15.728,214.036,15.526,213.486,15.45z
	 M215.363,15.885l-0.09,0.01C215.32,15.939,215.361,15.958,215.363,15.885z M207.579,14.736l0.031-0.07l-0.091-0.02L207.579,14.736z
	 M213.755,15.941c0.37,0.145,0.617,0.08,0.857-0.012l-0.93-0.082C213.641,15.902,213.629,15.94,213.755,15.941z M210.698,14.77
	l0.617,0.347C211.145,14.949,210.787,14.672,210.698,14.77z M215.164,15.757l0.061-0.01
	C215.114,15.636,215.123,15.683,215.164,15.757z M214.612,15.93l0.661-0.035l-0.109-0.138L214.612,15.93z M206.581,15.123
	c0.256,0.285,1.849,0.846,1.042,1.073c-1.2-0.002-0.924-0.316-1.445-0.63c0.385,0.581-1.604,0.408-1.498,1.171l1.068-0.045
	c-0.003,0.114-0.406,0.217-0.143,0.375c0.145-0.377,1.209-0.523,2.003,0.037c0.909-0.143,0.579-1.522-0.029-2.368
	C207.524,14.896,207.488,15.068,206.581,15.123z M207.61,14.666l1.76,0.365l-0.133,0.036l0.368,0.015
	c-0.398-0.14-0.664-0.347-1.147-0.747C207.826,14.421,207.676,14.543,207.61,14.666z M211.35,15.149l0.009,0.001l-0.003,0.006
	c0.064,0.065,0.083,0.103,0.006,0.057l-0.037,0.003l-0.104,0.146c-0.478-0.175-0.059-0.124,0.104-0.146l0.031-0.06L211.35,15.149
	l-1.744-0.067c0.35,0.123,0.805,0.19,1.614,0.282c-0.354,0.376-1.251,0.404-0.8,0.957c1.063,0.156,0.802-0.225,1.466-0.299
	c-1.725-0.192,0.528-0.149-0.661-0.607l0.94,0.049l-0.85-0.348L211.35,15.149z M219.486,18.973l-0.038-0.107
	C219.328,18.897,219.279,18.925,219.486,18.973z M218.198,17.517c-0.012-0.034-0.024-0.065-0.036-0.102
	C218.135,17.423,218.155,17.463,218.198,17.517z M219.63,18.369l-0.133,0.037c-0.528-0.212-1.134-0.684-1.299-0.89
	c0.125,0.365,0.266,0.659,0.626,1.076c0.136-0.037,0.27-0.188,0.669-0.073c0.33,0.189-0.038,0.202-0.045,0.346
	C219.714,18.795,220.361,18.712,219.63,18.369z M214.15,17.529v-0.228c0.801,0.224,0.671-0.077,0.801-0.23l-1.469-0.032
	L214.15,17.529z M207.666,13.992l-0.93,0.479l0.659-0.063L207.666,13.992z M205.71,13.724l-0.525,0.137l0.382,0.237L205.71,13.724z
	 M99.614,4.966L99.19,5.071C99.391,5.04,99.519,5.004,99.614,4.966z M102.671,5.048l0.08-0.194
	C102.606,4.959,102.547,5.037,102.671,5.048z M158.674,4.714l0.14,0.457c0.444-0.018,0.772,0.076,1.045,0.208
	C159.282,4.927,158.651,4.262,158.674,4.714z M127.981,4.377l0.168,0.15l0.459-0.37L127.981,4.377z M126.584,5.756
	c0.174,0.116,0.426,0.236,0.786,0.363L126.584,5.756z M83.005,6.02l-0.45,0.482C83.315,6.434,82.962,6.242,83.005,6.02z
	 M186.656,10.19c-0.493-0.276-0.898-0.434-1.263-0.532C185.979,10.036,186.414,10.509,186.656,10.19z M100.879,0.384
	c-0.265,0.074-0.379,0.161-0.372,0.257C100.779,0.572,100.934,0.492,100.879,0.384z M183.869,9.341l0.259,0.159
	c0.4,0.009,0.8,0.033,1.266,0.159C184.962,9.379,184.447,9.154,183.869,9.341z M23.185,15.585l-0.146-0.011
	C23.043,15.634,23.103,15.619,23.185,15.585z M5.494,16.727c-0.138,0.02-0.349,0.102-0.691,0.295
	C4.961,16.933,5.236,16.829,5.494,16.727z M198.229,12.338C198.627,12.397,198.302,12.305,198.229,12.338L198.229,12.338z
	 M199.561,14.606l0.201-0.171C199.669,14.464,199.592,14.511,199.561,14.606z M179.423,11.17l-0.034-0.009
	C179.489,11.27,179.473,11.25,179.423,11.17z M198.775,12.661l-0.473-0.235C198.377,12.476,198.52,12.551,198.775,12.661z
	 M198.74,12.443l0.333,0.116C199.139,12.5,199.104,12.446,198.74,12.443z M198.229,12.338c-0.116-0.019-0.28-0.046-0.551-0.098
	l0.624,0.186C198.232,12.379,198.205,12.348,198.229,12.338z M54.74,7.834l-0.09-0.028C54.278,8.045,54.448,7.99,54.74,7.834z
	 M148.976,8.599l0.048-0.015l-0.057-0.022L148.976,8.599z M147.509,8.759c0.67-0.468,1.009-0.363,1.458-0.197l-0.333-1.296
	L147.509,8.759z M203.758,13.445c0.487,1.011-2.754-0.611-1.885,0.515c-0.617-0.979-1.301-0.645-2.19-1.56
	c-0.011,0.205,0.285,0.46-0.609,0.159l-0.239,0.13l-0.059-0.028l0.046,0.034c-0.047,0.021-0.052,0.027,0.017,0.013
	c0.199,0.135,0.353,0.278,0.4,0.403c-0.555,0.353-2.008,0.017-2.552,0.143c-0.522-0.214,0.277-0.177,0.027-0.453l-0.813,0.188
	c0.023-0.454-1.284-1.048,0.053-1.021l-1.148-0.274c-0.624-0.396-1.536-0.701-2.152-0.644c-0.523-0.214-1.479,0.182-0.931-0.057
	l-1.873-0.114l0.007-0.113c-1.783-0.431-3.844-0.044-5.729-1.267c-0.627-0.016-1.278-0.01-2.263-0.346l-0.12-0.421
	c-0.803-0.026-2.251-0.878-2.67-0.527c-0.646-1.179-3.76-0.913-5.102-1.344l-0.142,0.49c-0.942-0.2-1.876-0.222-3.085-0.234
	l-0.003,0.455c-1.077,0.201-2.536-0.833-4.169-0.976c0.136-0.155,0.54-0.054,0.813,0.088c-1.782-1.266-4.183,0.171-5.828-0.798
	c-0.458,0.102-0.767,0.004-1.058-0.149l0.11-0.009l-0.178-0.03l-0.577-0.319c0.169,0.132,0.333,0.246,0.48,0.307
	c-0.338-0.037-0.856-0.051-1.37-0.008l-0.155-0.507l-0.117-0.002c-0.472-0.244-0.422,0.172-0.203,0.568
	c-0.262,0.044-0.503,0.107-0.695,0.198c-0.31-0.825-1.34,0.079-1.792-0.814c-0.378,0.364-2.529,0.021-2.888,0.838
	c-0.005-0.113-0.146-0.182,0.124-0.158c-0.544-0.158-1.087-0.317-1.61-0.135l-0.167-0.635l-1.301,0.682
	c-0.693-0.454-0.974-0.703-0.191-1.089c-1.843,0.522-1.46,0.111-3.039,0.655l0.118-0.385c-0.537-0.045-1.454,0.386-1.74,0.024
	c-1.115-0.884-5.924-0.774-8.927-1.817c0.473,1.221-1.379-0.669-1.599,0.218c-0.15-0.293-0.564-0.493-0.038-0.679
	c-1.605,0.104-2.325-0.682-3.492-0.037c-0.152-0.294,0.379-0.367,0.235-0.546c-0.133,0.046-0.525,0.187-0.673,0.005
	c-0.145-0.18,0.254-0.206,0.517-0.3c-1.617-0.121-1.865,0.708-2.062,1.489c-0.777-0.459-1.19-0.45-1.829,0.01
	c-0.259-0.289-0.706-0.61,0.303-0.6c-0.555-0.113-3.409-0.699-3.524-0.066c-0.162-0.176-0.784-0.113-0.939-0.053
	c-1.262-0.146-1.369-0.212-2.617-0.258l0.336,0.134c-0.554,0.727-1.046,0.083-2.055,0.091l0.035-0.075
	c-2.256-0.74-1.007,0.157-3.233-0.621l0.09,0.485c-0.281,1.018-1.971-0.72-3.318-0.4l0.459,0.3
	c-0.738,0.312-1.934-1.514-2.657-1.684c-0.154-0.099,0.257-0.129,0.482-0.184c-1.873-0.715-0.279,0.613-1.702,0.68
	c-0.245-0.354,0.378-0.842-0.575-0.959c-0.465-0.321-2.812,0.957-4.096,0.31c0.281,0.266,0.557,0.532-0.107,0.716
	c-1.008,0.075-2.712-1.036-3.639-0.229c-0.127-0.075-0.175-0.144-0.18-0.209c-0.775,0.198-2.513,0.308-2.977,0.746
	c-0.725-1.705-4.782,0.928-4.793-0.615l-2.376,0.153l0.056-0.158c-1.527-0.056-2.048,0.326-2.563,0.709
	c-0.356-0.094-0.107-0.244-0.083-0.325c-2.235-0.222-2.46-0.061-4.256,0.835l-0.232-0.478c-0.474,0.33-3.277-0.496-5.398,0.269
	c0.015-0.058,0.049-0.157,0.214-0.242c-2.385,0.786-5.952-0.701-6.632,1.178l-1.54,0.631c2.077-0.105-0.214,0.814,0.669,1.011
	c-0.797,0.199-2.159-0.285-1.175-0.501l0.167,0.071c0.254-0.979-2.601-0.016-2.623-0.658c-4.051,0.528-8.075,0.556-11.887,1.027
	l0.541,0.666l-1.33,0.151c-0.372-0.115-0.549-0.496,0.401-0.609c-0.557-0.335-1.537,0.584-1.54,0.746
	c-1.894-0.013,0.599-0.954,0.029-0.885l-0.764,0.171l0.187,0.058c-0.582,0.391-0.589,0.712-1.73,0.849
	c-0.741-0.036-0.438-0.39-0.725-0.374c-0.006-0.052-0.106-0.062-0.438,0.044L48.03,5.304l0.759,0.469
	c-0.695,0.392-1.573,0.21-0.7,0.737c-1.29-0.811-6.265,0.729-7.011,0.54c-0.957,0.583-1.966,0.816-3.235,1.017
	c0.337,0.053,0.65,0.651-0.445,0.797c0.126-1.395-2.099-0.16-3.183-0.92c0.917,0.435-3.048,0.833-1.618,1.448
	c-0.922,0.116-0.167-0.476-0.921-0.614c-2.013,1.066-4.822,0.764-7.405,1.739c0.007,0.182,0.518,0.311,0.028,0.729l-1.629-0.434
	c-0.497,0.237-0.187,1.114-1.309,0.81c0.177,0.102,0.441,0.256,0.111,0.413c-5.372,0.78-10.067,3.694-15.821,4.219
	c0.827,0.055,0.371,0.262-0.158,0.473c0.377-0.055,0.154,0.406,0.311,0.602c-0.803,0.038-1.588,0.163-2.381,0.306
	c-0.109,0.783-2.243,1.117-2.175,1.786l0.609-0.417c-0.528,1.079,1.948,0.91,2.21,1.846c0.584-1.265,2.94,0.005,4.107-1.673
	c0.422,0.052-0.192,0.401,0.076,0.539c0.257-0.534,0.722-0.799,1.689-0.964l-0.069,0.134c2.557-0.992,3.801-0.926,6.854-1.62
	l-0.363-0.382c0.661-0.141,0.841-0.042,1.178-0.022c0.52-0.917-1.816,0.527-1.382-0.439c1.138,0.653,4.538-1.417,5.418-0.515
	c0.974-0.282-0.449-0.438,0.526-0.721l0.345,0.206l0.134-0.438c0.659-0.13,1.086,0.131,1.181,0.363
	c-0.163,0.018-0.419,0.198-0.578,0.268c0.924,0.09,2.292-0.804,2.607-0.779l-0.983,0.102c2.557-1.124,5.983-1.429,8.439-2.697
	L33,12.041c1.909-0.882,1.664-0.111,3.831-0.77l-0.07,0.068c0.397-0.31,0.967-0.542,1.578-0.643
	c-0.506,0.373,1.151,0.281,0.477,0.717c2.096-0.884,1.008-0.573,2.301-1.673l0.405,0.306c0.435-0.417,0.444-0.598,1.543-0.889
	c-0.858,0.474,0.812,0.431-0.136,1.024c2.474,0.389,3.331-1.416,4.599-0.435c0.906-1.202-2.116-0.207-1.551-0.529
	c-0.562-0.242,0.759-0.912,1.513-0.94c0.752-0.116,1.487,1.094,3.368,0.784c-0.188,0.023-0.189,0.103-0.377,0.126
	c0.745,0.151,1.329-0.56,2.259-0.271c0.394-0.688,1.129-0.136,1.153-0.94l-1.705,0.444c0.95-0.353,1.738-1.413,3.425-1.208
	c-0.105,0.171-0.557,0.456-0.871,0.621c0.506,0.158,0.89-0.292,1.416-0.118c-0.032,0.793-2.083,0.479-3.045,1.236
	c0.555,0.254,1.904-0.869,1.5,0.06c0.602-1.202,1.878-0.133,3.045-1.129l-0.02,0.481c0.193-0.101,0.583-0.38,0.958-0.418l-0.592,0.7
	c0.966-0.659,2.06,0.187,3.016-0.23c-2.08,0.294-0.542-0.503-1.47-0.729c2.491-0.97,1.638,1.021,4.489,0.431
	c-0.382,0.114-1.502-0.102-0.919-0.396c0.562,0.029,1.31,0.121,1.678,0.327c1.899-0.334-0.354-0.448,0.423-0.838
	c0.723,0.493,0.91-0.35,1.727-0.637l0.065,0.478c2.217,0.039,0.456-1.069,2.464-0.94L68.726,6.88l1.002-0.298l-0.146,0.571
	c1.063-0.542,1.426-0.475,2.537-0.453c-0.294-0.307,0.039-0.886,1.005-1.016c0.694,0.206-0.315,0.499,1.048,0.268
	c-0.274,0.336-0.568,0.752-1.218,0.382c-0.042,0.164-0.27,0.336-0.314,0.499c0.75,0.243,1.795-0.137,2.291-0.201
	c-0.193,0.005-0.425,0.006-0.55-0.047l1.91-0.901c0.334,0.143,0.103,0.316-0.126,0.488c0.396-0.098,0.65-0.358,1.235-0.459
	c-0.106,0.401-0.022,0.8-0.838,1.083l1.83-0.621c0.145,0.159,1.01,0.383,0.783,0.547c1.054,0.14,2.464-0.977,3.868-0.793
	c0.065-0.082,0.203-0.167,0.491-0.249c1.304-0.013,2.47,0.332,3.975-0.288l0.91,0.676c1.197-0.195-1.229-0.85,0.771-1.174
	c1.417-0.267,0.557,0.583,1.064,0.764c0.689-0.375,1.904-1.132,3.227-0.599c-0.43,0.145-0.771,0.052-1.175,0.116l1.005,0.36
	c-1.184,0.677-2.051,0.481-1.106,1.001c0.103-1.361,3.845-0.254,3.97-1.616l0.659,0.267c-0.188-0.01-0.218,0.073-0.404,0.064
	c1.279,0.637,0.947-0.975,2.603-0.76c0.576,0.114,0.976,0.319,0.582,0.473l1.287-0.313c0.373,0.033,0.278,0.268-0.093,0.234
	l1.958-0.073l-0.015,0.04c0.283-0.208,0.925-0.526,1.239-0.661c0.493,0.204-0.254,0.14-0.131,0.311l1.095-0.309
	c0.431,0.36-0.479,0.686-1.225,0.621c0.972,1.377,0.91-0.335,3.066,0.515l-1.028,0.144c0.629,0.769,1.436,0.543,2.567,1.088
	c-0.259-0.266-2.26-1.339-1.071-1.611c0.328,0.121,0.762,0.194,1.409-0.043c-0.016,0.483,0.608,0.399,1.385,0.416l-0.085,0.636
	c0.846-0.137,0.797-0.466,1.306-0.726c0.931,0.115,1.096,0.621,1.29,1.049c1.487,0.186-0.984-0.851,0.792-0.872
	c1.229,0.323,2.118,0.083,3.637-0.177c0.855,0.294-0.181,0.377,0.118,0.586l0.811-0.443c0.188,0.028,0.115,0.179,0.078,0.255
	c0.666-0.142,0.102-0.633,1.141-0.719c0.334-0.679,2.02,1.205,3.354,0.515c0.297,0.208-0.185,0.378-0.11,0.633
	c1.784-0.376,1.522-0.253,3.018-0.836l1.178,0.529c-0.849-0.571,0.349-1.019,1.397-1.379c-0.295-0.263-0.547-0.494-0.721-0.609
	l1.636-0.175c0.184,0.125,0,0.327-0.288,0.565l0.308-0.122c0.55,0.294,0.216,0.632-0.229,0.944l-0.537-0.453
	c-0.434,0.346-0.845,0.736-0.799,1.118c0.111-0.063,0.317-0.106,0.541-0.118c-0.114,0.094-0.188,0.182-0.147,0.25
	c0.048,0.073,0.229-0.051,0.506-0.186l0.292,0.748l0.116-0.272l2.044,0.66c1.566-0.559,2.979-1.475,5.391-1.521
	c-0.647,0.458-0.22,0.835-0.32,1.448c-0.576-0.719-1.868,0.086-3.083-0.174c0.635,0.135,0.463,0.415,0.289,0.5l2.256-0.366
	c-0.104,0.5,0.424,0.423,0.975,0.697c-0.324-1.045,1.708-0.479,2.636-0.683c0.018,0.34-0.234,0.658-1.314,0.454
	c1.118,0.885,1.683-0.994,2.792-0.223c-0.267-0.022-0.404-0.09-0.528,0.069c0.654-0.228,2.147,0.18,1.757,0.43l-0.266-0.023
	c1.752,0.317,5.375,0.614,5.736-0.202c0.005,0.112-0.348,0.993-0.475,1.151l3.477-2.488c-0.36,0.694,0.514,2.543-1,2.789
	c0.41,0.15,0.918,0.33,1.834,0.173c-0.275-0.136-0.599-1.131-0.198-1.153c0.987,0.929,0.699,0.517,1.951,1.355
	c-0.413-0.204,0.191-1.288,0.867-1.175c-0.125,0.158-0.066,1.13-0.329,1.22l1.816-0.927c-0.444,0.154-0.178,0.939,0.167,1.298
	c-0.146-0.249,1.452,0.201,1.908,0.156l-0.681-0.356c1.869,0.428,2.055-1.314,3.938-0.998c-0.26,0.199-0.743,1.341,0.191,1.612
	c0.508-0.512,2.31-2.48,4.063-2.688l0.274,0.37l1.347-0.195c-0.942,0.746-3.445,2.245-4.748,2.783
	c0.671,0.354,0.144,0.412,1.205,0.526c0.329,0.357-0.641,0.385-0.953,0.36l2.427,0.533c-0.012-0.68,1.979-0.411,1.973-0.977
	l-2.778,0.324c-0.017-0.679,1.826-1.676,3.568-1.319c0.403,0.326-0.521,1.137-0.52,1.363c0.264-0.214,1.726-0.182,1.858,0.019
	l-0.796,0.221c0.925,0.424,1.727-0.593,2.784,0.25c0.395,0.116,1.051,1.069,1.188,0.69c-0.521-0.874-0.249-3.236,0.291-3.724
	c0.134,0.077,2.001,1.107,2.394,1.564c0.556,0.711-1.253,1.229-0.779,1.84c0.057-0.176,0.463-0.333,0.629-0.377
	c0.395,0.231-0.277,0.528,0.655,0.613c0.276-0.642,1.855,0.394,0.539-0.488c0.934-0.029,0.929,0.312,1.989,0.472
	c-0.255-0.492,1.232-1.302,2.175-1.324c-0.086,0.158,0.071,0.423,0.149,0.544c1.826,0.445,2.751,0.954,4.463,1.318
	c0.125,0.194,0.91,0.563,0.499,0.776c0.271-0.066,0.544-0.245,1.075-0.15c0.901,0.791-1.195-0.156-0.562,0.7
	c0.147-0.374,1.477-0.251,2.28-0.335c-0.104-0.647-1.715-0.479-2.518-0.395c0.167-0.826,1.661-1.417,3.538-1.423
	c1.471,0.094,0.505,0.662,0.777,0.597c2.647,0.701,2.593-0.952,4.682,0.128c0.765,0.72-0.189,1.054-0.077,1.476
	c-1.2-0.057-1.704-0.727-2.493-0.879L192,13.446c-0.407,0.095-1.207,0.052-1.597-0.188c0.636,0.629,4.489,1.086,6.452,1.975
	c0.404-0.094,1.076-0.137,0.823-0.414l-0.667-0.071c-0.506-0.556,1.354-0.313,0.573-0.694c0.94-0.104,2.023-0.355,3.201,0.156
	l0.099,0.65c0.013-0.182-0.726-0.535-1.111-0.43c0.571-0.151,1.707,1.229,2.442,0.568l-0.771-0.605
	c0.951-0.096,2.156-0.526,3.192-0.118C204.271,13.584,204.374,14.293,203.758,13.445z M50.026,5.265l0.282,0.086
	C49.737,5.577,49.884,5.428,50.026,5.265z M106.151,5.025c0.35-0.551,0.597-0.272,1.084-0.083
	C106.941,5.023,106.352,5.307,106.151,5.025z M129.181,5.332c0.278-0.011,0.586,0.039,0.917,0.198
	C129.866,5.666,129.54,5.552,129.181,5.332z M193.82,11.789c-0.598-0.324-0.388-0.202,0.035-0.016L193.82,11.789z M127.449,5.917
	c-0.074-0.089-0.088-0.181-0.099-0.273C127.229,5.712,127.218,5.806,127.449,5.917z M83.088,5.931l-0.045-0.002L83.005,6.02
	L83.088,5.931z M173.769,12.071c-0.261-0.118-0.397-0.232-0.482-0.34C173.25,11.844,173.356,11.965,173.769,12.071z M202.327,13.021
	l-0.875-0.065c0.415,0.068,0.539,0.203,0.729,0.324C202.188,13.166,202.061,12.971,202.327,13.021z M209.076,17.375
	c0.136-0.036,0.267,0.04,0.4,0.003l0.004-0.227C208.947,17.072,208.543,17.185,209.076,17.375z M202.763,14.752
	c-0.021,0.41,0.539,0.382,1.146,0.428l-0.104-0.021C204.094,14.639,203.429,14.695,202.763,14.752z M204.048,15.194l0.549,0.101
	C204.711,15.086,204.385,15.203,204.048,15.194z M196.871,12.379c0.26,0.164,0.288-0.467,0.413-0.271
	C197.709,11.673,195.271,12.303,196.871,12.379z M202.433,15.95l0.526,0.205l-0.107-0.532L202.433,15.95z M198.349,14.776
	l0.918,0.346c0.004-0.086,0.135-0.107,0.291-0.11C198.978,14.865,198.358,14.626,198.349,14.776z M200.339,15.099
	c-0.165-0.031-0.523-0.094-0.781-0.087C199.86,15.088,200.152,15.141,200.339,15.099z M200.707,15.684l0.92,0.349l-0.258-0.164
	L200.707,15.684z M188.164,12.455l-1.068-0.077c-0.142,0.146,0.12,0.309,0.521,0.322C187.89,12.635,188.288,12.65,188.164,12.455z
	 M190.635,13.986l-0.163,0.6l0.539-0.127C190.753,14.296,190.758,14.182,190.635,13.986z M187.674,14.368
	c0.141-0.146,1.208-0.068,0.285-0.406C187.819,14.109,186.354,14.132,187.674,14.368z M172.729,10.144l0.14-1.009l-0.406,0.969
	L172.729,10.144z M159.155,9.734c-0.776,0.15-1.148-0.044-0.888,0.667c1.2,0.41,0.369-0.584,1.444-0.129
	C160.032,10.072,158.833,9.9,159.155,9.734z M159.155,9.734l0.399-0.101C159.331,9.667,159.224,9.701,159.155,9.734z M1.779,17.835
	l-0.863,0.177l0.649,0.069L1.779,17.835z M0,19.454c0.157-0.107,0.462-0.315,0.661-0.247l-0.483-0.488L0,19.454z M108.79,5.974
	l0.606,0.399l0.068-0.153C109.349,6.044,109.163,6.021,108.79,5.974z M98.604,5.583L98.791,5.6l-0.346-0.593L98.604,5.583z
	 M89.586,6.515c0.369,0.014,0.795-0.13,1.166-0.115C89.956,6.529,89.455,5.787,89.586,6.515z"/>
</svg>
