<?xml version="1.0" encoding="utf-8"?>
<!-- Generator: Adobe Illustrator 13.0.1, SVG Export Plug-In . SVG Version: 6.00 Build 14948)  -->
<!DOCTYPE svg PUBLIC "-//W3C//DTD SVG 1.1//EN" "http://www.w3.org/Graphics/SVG/1.1/DTD/svg11.dtd">
<svg version="1.1" class="license-icon-svg" xmlns="http://www.w3.org/2000/svg" xmlns:xlink="http://www.w3.org/1999/xlink" x="0px" y="0px"
	 viewBox="15.337 395.335 15.776 16.803" enable-background="new 15.337 395.335 15.776 16.803"
	 xml:space="preserve">
	<line fill="none" stroke="#000000" stroke-width="1.9503" stroke-linecap="round" x1="30.138" y1="411.162" x2="16.312" y2="397.337"/>
	<g>
		<circle cx="19.571" cy="397.866" r="0.503"/>
		<circle cx="21.082" cy="397.866" r="0.503"/>
		<circle cx="22.592" cy="397.866" r="0.503"/>
		<path d="M27.124,400.384c0-0.278-0.226-0.503-0.503-0.503h-7.049c-0.278,0-0.504,0.225-0.504,0.503
			c0,0.278,0.226,0.503,0.504,0.503h7.049C26.898,400.887,27.124,400.662,27.124,400.384z"/>
		<path d="M24.103,402.398h-4.531c-0.278,0-0.504,0.226-0.504,0.504c0,0.278,0.226,0.503,0.504,0.503h4.531
			c0.278,0,0.503-0.226,0.503-0.503C24.606,402.623,24.381,402.398,24.103,402.398z"/>
		<path d="M24.606,405.419c0-0.278-0.225-0.504-0.503-0.504h-4.531c-0.278,0-0.504,0.226-0.504,0.504
			c0,0.278,0.226,0.503,0.504,0.503h4.531C24.381,405.923,24.606,405.697,24.606,405.419z"/>
		<path d="M19.571,407.433c-0.278,0-0.504,0.226-0.504,0.504c0,0.278,0.226,0.503,0.504,0.503h3.021c0.278,0,0.503-0.226,0.503-0.503
			c0-0.278-0.226-0.504-0.503-0.504H19.571z"/>
		<path d="M27.627,395.335h-9.063c-0.833,0-1.51,0.678-1.51,1.511v13.608c0,0.833,0.677,1.511,1.51,1.511h9.063
			c0.833,0,1.51-0.677,1.51-1.511v-1.007c0-0.278-0.226-0.503-0.503-0.503s-0.503,0.226-0.503,0.503v1.007
			c0,0.278-0.226,0.504-0.503,0.504h-9.063c-0.277,0-0.503-0.226-0.503-0.504v-13.608c0-0.278,0.226-0.504,0.503-0.504h9.063
			c0.277,0,0.503,0.226,0.503,0.504v4.042c0,0.278,0.226,0.503,0.503,0.503s0.503-0.226,0.503-0.503v-4.042
			C29.138,396.012,28.46,395.335,27.627,395.335z"/>
		<path d="M28.634,401.894c-1.249,0-2.266,1.017-2.266,2.266c0,0.538,0.189,1.032,0.503,1.421v3.351l1.762-0.705l1.762,0.705v-1.75
			c0-0.278-0.226-0.503-0.503-0.503s-0.503,0.226-0.503,0.503v0.263l-0.755-0.302l-0.755,0.302v-1.151
			c0.237,0.084,0.49,0.132,0.755,0.132c1.249,0,2.266-1.017,2.266-2.266C30.9,402.911,29.883,401.894,28.634,401.894z
			 M28.634,405.419c-0.694,0-1.259-0.565-1.259-1.259c0-0.694,0.565-1.259,1.259-1.259c0.694,0,1.259,0.564,1.259,1.259
			C29.893,404.854,29.329,405.419,28.634,405.419z"/>
	</g>
</svg>
