<svg version="1.1" id="rapid-ssl-icon-svg" xmlns="http://www.w3.org/2000/svg" xmlns:xlink="http://www.w3.org/1999/xlink" x="0px" y="0px"
	 viewBox="0 0 251.947 81.537" enable-background="new 0 0 251.947 81.537"
	 xml:space="preserve" role="img" aria-label="This site is secured by RapidSSL">
	<path d="M86.928,35.467c-3.792,0-7.137,2.686-7.137,2.686v-1.876h-8.458v45.261l8.458-4.424v-9.582c0,0,2.029,2.541,7.348,2.541
		c5.316,0,12.53-3.067,12.53-17.758S90.719,35.467,86.928,35.467z M85.823,62.267c-4.16,0-6.031-3.16-6.031-3.16V46.522
		c0,0,1.579-3.053,5.347-3.053c5.346,0,6.159,5.527,6.159,9.854C91.298,57.651,89.982,62.267,85.823,62.267z M52.675,35.537
		c-6.174,0-8.851,1.466-8.851,1.466v7.396c0,0,1.882-2.018,8.851-2.018c4.881,0,4.881,3.668,4.881,4.463v1.711
		c0,0-2.436-1.1-6.287-1.1S37.671,48.312,37.671,58.58c0,10.271,9.501,11.491,12.437,11.491c2.935,0,7.448-2.75,7.448-2.688v2.096
		h8.234V45.255C65.79,45.255,65.634,35.537,52.675,35.537z M57.555,59.694c-0.779,1.383-3.697,3.246-6.374,3.246
		s-5.397-1.381-5.397-4.648c0-3.271,2.085-4.322,6.275-4.322c4.188,0,5.496,1.623,5.496,1.623V59.694z M27.673,51.979
		c0.306-0.184,8.131-2.385,8.131-12.593c0-3.859-1.226-7.923-3.66-10.113c-4.005-3.603-10.033-4.021-10.033-4.021H0v44.228h8.424
		V53.813c0-0.084-0.053-0.232,0.375-0.232h8.703c0.245,0,0.573,0.355,0.573,0.355l7.764,15.543h9.903c0,0-8.191-16.398-8.313-16.767
		C27.306,52.347,27.367,52.164,27.673,51.979z M21.621,45.255H8.424V33.458c0,0,9.774,0.062,13.319,0.062s5.134,2.757,5.134,6.235
		C26.878,43.231,24.066,45.255,21.621,45.255z M108.41,23.515c-2.617,0-4.738,2.122-4.738,4.739c0,2.617,2.121,4.737,4.738,4.737
		c2.618,0,4.739-2.12,4.739-4.737C113.149,25.637,111.027,23.515,108.41,23.515z M104.251,69.479h8.407V36.276h-8.407V69.479z
		 M137.307,38.204c0,0-2.888-2.737-7.521-2.737c-4.632,0-12.741,2.948-12.741,17.007s6.688,17.6,12.688,17.6
		c4.316,0,7.056-2.541,7.056-2.541l0.519,0.212v1.735h8.278V23.304l-8.278,4.265V38.204L137.307,38.204z M137.307,59.106
		c0,0-2.36,3.213-5.625,3.213c-3.266,0-6.212-3.193-6.212-8.996c0-5.801,1.368-9.906,5.686-9.906s6.151,3.159,6.151,3.159V59.106z
		 M169.96,42.681c-10.004-2.577-9.478-4.634-9.478-5.687c0-1.053,0.631-4.37,6.688-4.37c6.318,0,10.267,4.476,10.267,4.476
		l6.161-5.897c0,0-6.057-6.739-16.374-6.739c-10.111,0-15.322,6.318-15.322,13.32c0,3.441,0.215,9.64,13.771,12.589
		c10.872,1.737,10.238,6.003,10.238,6.524c0,1.156-0.633,4.896-7.897,4.896c-7.266,0-11.899-5.002-11.899-5.002l-6.056,5.476
		c0,0,5.792,7.807,17.428,7.807c8.846,0,17.112-3.805,17.112-13.176C184.597,47.522,179.963,45.255,169.96,42.681z M246.852,60.994
		h-10.254V25.253h-8.662v44.227h24.012L246.852,60.994z M206.553,42.681c-10.005-2.577-9.479-4.634-9.479-5.687
		c0-1.053,0.633-4.37,6.688-4.37c6.317,0,10.268,4.476,10.268,4.476l6.16-5.897c0,0-6.056-6.739-16.375-6.739
		c-10.109,0-15.321,6.318-15.321,13.32c0,3.441,0.214,9.64,13.772,12.589c10.871,1.737,10.235,6.003,10.235,6.524
		c0,1.156-0.632,4.896-7.897,4.896s-11.898-5.002-11.898-5.002l-6.055,5.476c0,0,5.792,7.807,17.428,7.807
		c8.845,0,17.111-3.805,17.111-13.176C221.189,47.522,216.557,45.255,206.553,42.681z M50.087,17.697c1.469,0,2.74-0.256,3.815-0.766
		c1.076-0.511,1.897-1.244,2.467-2.202c0.569-0.957,0.854-2.072,0.854-3.344V0.248h-3.639v10.514c0,1.335-0.269,2.313-0.807,2.938
		c-0.538,0.624-1.403,0.937-2.596,0.937c-1.232,0-2.115-0.311-2.649-0.931s-0.801-1.593-0.801-2.92V0.248h-3.638v11.091
		c0,1.97,0.611,3.522,1.837,4.656C46.155,17.13,47.874,17.697,50.087,17.697z M87.27,14.447h-6.265v-4.439h5.828v-2.99h-5.828v-3.78
		h6.265v-2.99h-9.914v17.213h9.914V14.447z M134.72,17.461h3.626v-6.699l5.711-10.514h-3.934l-3.591,7.088l-3.568-7.088h-3.955
		l5.711,10.632V17.461L134.72,17.461z M34.816,17.697c1.743,0,3.32-0.295,4.732-0.884v-3.062c-1.719,0.605-3.183,0.907-4.392,0.907
		c-2.881,0-4.321-1.919-4.321-5.758c0-1.845,0.377-3.283,1.13-4.315c0.754-1.032,1.817-1.548,3.191-1.548
		c0.628,0,1.268,0.114,1.919,0.342c0.652,0.228,1.299,0.494,1.943,0.8l1.177-2.967C38.509,0.404,36.83,0,35.158,0
		c-1.641,0-3.071,0.359-4.292,1.078c-1.22,0.718-2.157,1.75-2.808,3.096c-0.651,1.347-0.978,2.914-0.978,4.704
		c0,2.842,0.663,5.021,1.99,6.541C30.397,16.938,32.312,17.697,34.816,17.697z M126.036,16.143c1.134-0.879,1.702-2.104,1.702-3.674
		c0-1.106-0.242-1.993-0.725-2.66c-0.482-0.668-1.271-1.123-2.361-1.366V8.324c0.801-0.133,1.443-0.529,1.925-1.188
		c0.482-0.659,0.724-1.503,0.724-2.532c0-1.515-0.552-2.619-1.653-3.314c-1.104-0.694-2.875-1.041-5.316-1.041h-5.356v17.213h6.439
		C123.361,17.461,124.902,17.021,126.036,16.143z M118.625,3.238h1.919c1.044,0,1.809,0.144,2.29,0.43
		c0.483,0.286,0.725,0.76,0.725,1.419c0,0.706-0.223,1.213-0.665,1.519c-0.443,0.307-1.16,0.459-2.149,0.459h-2.119V3.238z
		 M118.625,14.447V9.961h2.262c2.04,0,3.061,0.715,3.061,2.144c0,0.792-0.239,1.381-0.718,1.766
		c-0.479,0.385-1.222,0.577-2.226,0.577L118.625,14.447L118.625,14.447z M70.127,9.961c1.021-0.447,1.81-1.065,2.366-1.854
		c0.558-0.788,0.836-1.689,0.836-2.702c0-1.734-0.561-3.027-1.684-3.879s-2.854-1.277-5.192-1.277h-5.016v17.213h3.649v-6.604h1.943
		l4.109,6.604h4.05C74.405,16.331,72.717,13.831,70.127,9.961z M68.82,7.313c-0.549,0.384-1.401,0.576-2.555,0.576h-1.178v-4.65
		h1.107c1.177,0,2.046,0.173,2.608,0.518c0.561,0.346,0.842,0.927,0.842,1.743C69.644,6.323,69.369,6.928,68.82,7.313z
		 M24.255,14.447h-6.264v-4.439h5.829v-2.99h-5.829v-3.78h6.264v-2.99h-9.914v17.213h9.914V14.447z M102.812,2.473
		c-1.555-1.483-3.736-2.225-6.546-2.225h-5.404v17.213h4.875c3.046,0,5.375-0.753,6.988-2.26c1.612-1.508,2.419-3.678,2.419-6.512
		C105.143,6.028,104.366,3.956,102.812,2.473z M96.077,14.447h-1.565V3.238h1.942c3.267,0,4.898,1.849,4.898,5.546
		C101.352,12.56,99.594,14.447,96.077,14.447z M9.543,16.354c1.119-0.895,1.679-2.119,1.679-3.674c0-1.122-0.299-2.07-0.896-2.843
		s-1.7-1.545-3.309-2.314C5.8,6.943,5.029,6.541,4.703,6.317C4.377,6.093,4.141,5.861,3.991,5.622
		C3.842,5.383,3.768,5.103,3.768,4.78c0-0.518,0.185-0.938,0.554-1.26C4.69,3.199,5.22,3.038,5.911,3.038
		c0.581,0,1.171,0.074,1.772,0.224c0.601,0.15,1.359,0.412,2.277,0.789l1.178-2.838c-0.888-0.385-1.737-0.683-2.55-0.895
		C7.777,0.106,6.923,0,6.028,0C4.207,0,2.78,0.436,1.748,1.308C0.716,2.179,0.2,3.376,0.2,4.898c0,0.809,0.157,1.515,0.471,2.119
		c0.314,0.604,0.734,1.135,1.261,1.59c0.525,0.455,1.313,0.93,2.365,1.425c1.123,0.533,1.866,0.922,2.231,1.165
		c0.365,0.243,0.642,0.497,0.83,0.76c0.188,0.263,0.283,0.563,0.283,0.9c0,0.604-0.215,1.06-0.643,1.366
		c-0.428,0.306-1.042,0.459-1.842,0.459c-0.667,0-1.403-0.106-2.208-0.317C2.145,14.152,1.162,13.788,0,13.27v3.392
		c1.413,0.69,3.038,1.036,4.875,1.036C6.868,17.697,8.424,17.249,9.543,16.354z"/>
</svg>
