<svg version="1.2" baseProfile="tiny" xmlns="http://www.w3.org/2000/svg" xmlns:xlink="http://www.w3.org/1999/xlink"
	 x="0px" y="0px" viewBox="0 0 17.088 12.365" xml:space="preserve">
<path d="M8.545,5.405c1.492,0,2.702-1.211,2.702-2.703S10.037,0,8.545,0C7.052,0,5.842,1.21,5.842,2.702S7.052,5.405,8.545,5.405z
	 M8.545,7.596L0,2.827l8.545,9.538l8.543-9.538L8.545,7.596z"/>
</svg>
