<svg version="1.2" baseProfile="tiny" xmlns="http://www.w3.org/2000/svg" xmlns:xlink="http://www.w3.org/1999/xlink"
	 x="0px" y="0px"  viewBox="0 0 13.951 16.882" xml:space="preserve">
<path d="M13.871,9.093l-2.492,7.789L5.97,16.843l-1.172-2.871l-3.152-2.489c0,0-0.903,0-1.646,0c0-0.843,0.501-1.647,1.646-1.647
	c0.563,0,1.746,0.343,2.471,0.563V1.224C4.116,0.542,4.657,0,5.339,0c0.684,0,1.226,0.542,1.226,1.225V5.48
	c0.301-0.342,0.742-0.563,1.225-0.563c0.723,0,1.325,0.463,1.545,1.105c0.262-0.181,0.583-0.281,0.925-0.281
	c0.782,0,1.443,0.563,1.605,1.305c0.141-0.042,0.281-0.061,0.441-0.061c0.903,0,1.646,0.742,1.646,1.646
	C13.951,8.772,13.911,8.933,13.871,9.093z"/>
</svg>
